Integral dx	x + c
Integral k dx	kx + c
Integral x^n dx	(1 / (n + 1)) x^(n + 1) + c, n != -1
Integral 1/x dx	ln|x| + c
Integral x^-1 dx	ln|x| + c
Integral x^-n dx	(1 / (-n + 1)) x^(-n + 1) + c, n != 1
Integral (1 / (ax + b)) dx	(1 / a) ln|ax + b| + c
Integral cos(x) dx	sin(x) + c
Integral sin(x) dx	-cos(x) + c
Integral sec(x)^2 dx	tan(x) + c
Integral sec(x)tan(x) dx	sec(x) + c
Integral csc(x)cot(x) dx	-csc(x) + c
Integral csc(x)^2 dx	-cot(x) + c
Integtal tan(x) dx	ln|sec(x)| + c
Integral cot(x) dx	ln|sin(x)| + c
Integtal sec(x) dx	ln|sec(x) + tan(x)| + c
Integtal sec(x)^3 dx	1/2 (sec(x)tan(x) + ln|sec(x) + tan(x)|) + c
